...............
----------------------------------------------------------------------
Ran 15 tests in 4.287s

OK
Name             Stmts   Miss Branch BrPart  Cover   Missing
------------------------------------------------------------
Collatz.py          36      0     12      0   100%
TestCollatz.py      68      0      0      0   100%
------------------------------------------------------------
TOTAL              104      0     12      0   100%
