.................
----------------------------------------------------------------------
Ran 17 tests in 1.093s

OK
Name             Stmts   Miss Branch BrPart  Cover   Missing
------------------------------------------------------------
Collatz.py          46      0     16      0   100%
TestCollatz.py      72      0      0      0   100%
------------------------------------------------------------
TOTAL              118      0     16      0   100%
